<?xml version="1.0" encoding="UTF-8" standalone="no"?>
<!-- Created with Inkscape (http://www.inkscape.org/) -->

<svg
   xmlns:osb="http://www.openswatchbook.org/uri/2009/osb"
   xmlns:dc="http://purl.org/dc/elements/1.1/"
   xmlns:cc="http://creativecommons.org/ns#"
   xmlns:rdf="http://www.w3.org/1999/02/22-rdf-syntax-ns#"
   xmlns:svg="http://www.w3.org/2000/svg"
   xmlns="http://www.w3.org/2000/svg"
   xmlns:xlink="http://www.w3.org/1999/xlink"
   xmlns:sodipodi="http://sodipodi.sourceforge.net/DTD/sodipodi-0.dtd"
   xmlns:inkscape="http://www.inkscape.org/namespaces/inkscape"
   width="297mm"
   height="420mm"
   viewBox="0 0 296.99999 420.00001"
   version="1.1"
   id="svg8"
   inkscape:version="0.92.3 (2405546, 2018-03-11)"
   sodipodi:docname="mask.svg"
   inkscape:export-filename="/home/jonas/Projects/figaro/DonGiovanni/affisch/mask.png"
   inkscape:export-xdpi="399.9808"
   inkscape:export-ydpi="399.9808">
  <defs
     id="defs2">
    <linearGradient
       id="linearGradient3537"
       osb:paint="solid">
      <stop
         style="stop-color:#000000;stop-opacity:1;"
         offset="0"
         id="stop3535" />
    </linearGradient>
    <linearGradient
       inkscape:collect="always"
       id="linearGradient840">
      <stop
         style="stop-color:#000000;stop-opacity:0"
         offset="0"
         id="stop836" />
      <stop
         style="stop-color:#000000;stop-opacity:1"
         offset="1"
         id="stop838" />
    </linearGradient>
    <linearGradient
       id="linearGradient5233"
       osb:paint="solid">
      <stop
         style="stop-color:#000000;stop-opacity:1;"
         offset="0"
         id="stop5231" />
    </linearGradient>
    <linearGradient
       inkscape:collect="always"
       id="linearGradient5219">
      <stop
         style="stop-color:#000000;stop-opacity:1;"
         offset="0"
         id="stop5215" />
      <stop
         id="stop5221"
         offset="1"
         style="stop-color:#000000;stop-opacity:0" />
    </linearGradient>
    <linearGradient
       inkscape:collect="always"
       xlink:href="#linearGradient5219"
       id="linearGradient5081"
       x1="114.72594"
       y1="130.25092"
       x2="88.904922"
       y2="114.21464"
       gradientUnits="userSpaceOnUse" />
    <filter
       inkscape:collect="always"
       style="color-interpolation-filters:sRGB"
       id="filter7135"
       x="-0.02391869"
       width="1.0478374"
       y="-0.050200582"
       height="1.1004012">
      <feGaussianBlur
         inkscape:collect="always"
         stdDeviation="0.3960793"
         id="feGaussianBlur7137" />
    </filter>
    <filter
       inkscape:collect="always"
       style="color-interpolation-filters:sRGB"
       id="filter7139"
       x="-0.027957885"
       width="1.0559158"
       y="-0.035292692"
       height="1.0705854">
      <feGaussianBlur
         inkscape:collect="always"
         stdDeviation="0.58565452"
         id="feGaussianBlur7141" />
    </filter>
    <filter
       inkscape:collect="always"
       style="color-interpolation-filters:sRGB"
       id="filter7152"
       x="-0.4501116"
       width="1.9002233"
       y="-0.37359405"
       height="1.7471881">
      <feGaussianBlur
         inkscape:collect="always"
         stdDeviation="0.5618914"
         id="feGaussianBlur7154" />
    </filter>
    <filter
       inkscape:collect="always"
       style="color-interpolation-filters:sRGB"
       id="filter7156"
       x="-0.048480857"
       width="1.0969617"
       y="-0.10175169"
       height="1.2035034">
      <feGaussianBlur
         inkscape:collect="always"
         stdDeviation="0.80281414"
         id="feGaussianBlur7158" />
    </filter>
    <linearGradient
       inkscape:collect="always"
       xlink:href="#linearGradient840"
       id="linearGradient844"
       gradientUnits="userSpaceOnUse"
       gradientTransform="matrix(1.0169492,0,0,1,-85.57608,-235.59156)"
       x1="35.236736"
       y1="132.62923"
       x2="47.816521"
       y2="134.22963"
       spreadMethod="pad" />
    <linearGradient
       inkscape:collect="always"
       xlink:href="#linearGradient840"
       id="linearGradient3486"
       gradientUnits="userSpaceOnUse"
       gradientTransform="matrix(1.3646807,0,0,0.98808234,105.61395,-228.57505)"
       x1="35.236736"
       y1="132.62923"
       x2="47.816521"
       y2="134.22963"
       spreadMethod="pad" />
    <filter
       inkscape:collect="always"
       style="color-interpolation-filters:sRGB"
       id="filter3498"
       x="-0.1061724"
       width="1.2123448"
       y="-0.24861915"
       height="1.4972383">
      <feGaussianBlur
         inkscape:collect="always"
         stdDeviation="1.6956354"
         id="feGaussianBlur3500" />
    </filter>
    <linearGradient
       inkscape:collect="always"
       xlink:href="#linearGradient3537"
       id="linearGradient3539"
       x1="39.128853"
       y1="279.21832"
       x2="67.244423"
       y2="279.21832"
       gradientUnits="userSpaceOnUse" />
    <mask
       maskUnits="userSpaceOnUse"
       id="mask1159">
      <path
         inkscape:label="path985"
         sodipodi:nodetypes="ccccc"
         inkscape:connector-curvature="0"
         id="path1161"
         d="m 37.871961,93.648808 c 0,0 -20.913643,68.623982 63.331649,48.213262 84.24567,20.41072 63.332,-48.213262 63.332,-48.213262 l -63.23697,-2.990399 z"
         style="display:inline;fill:#ffffff;fill-opacity:1;fill-rule:nonzero;stroke:#ffffff;stroke-width:0.24994776px;stroke-linecap:butt;stroke-linejoin:miter;stroke-opacity:1" />
    </mask>
    <mask
       maskUnits="userSpaceOnUse"
       id="mask1163">
      <path
         inkscape:label="path985"
         sodipodi:nodetypes="ccccc"
         inkscape:connector-curvature="0"
         id="path1165"
         d="m -39.898077,-93.357562 c 0,0 18.050748,-69.451678 -54.662103,-48.794778 -72.71318,-20.6569 -54.66241,48.794778 -54.66241,48.794778 l 54.580388,3.026468 z"
         style="display:inline;fill:#ffffff;fill-opacity:1;fill-rule:nonzero;stroke:#ffffff;stroke-width:0.23360677px;stroke-linecap:butt;stroke-linejoin:miter;stroke-opacity:1" />
    </mask>
    <mask
       maskUnits="userSpaceOnUse"
       id="mask1167">
      <path
         inkscape:label="path985"
         sodipodi:nodetypes="ccccc"
         inkscape:connector-curvature="0"
         id="path1169"
         d="m 37.871961,-93.648808 c 0,0 -20.913643,-68.623982 63.331649,-48.213262 84.24567,-20.41072 63.332,48.213262 63.332,48.213262 l -63.23697,2.990399 z"
         style="display:inline;fill:#ffffff;fill-opacity:1;fill-rule:nonzero;stroke:#ffffff;stroke-width:0.24994776px;stroke-linecap:butt;stroke-linejoin:miter;stroke-opacity:1" />
    </mask>
    <clipPath
       clipPathUnits="userSpaceOnUse"
       id="clipPath1167">
      <path
         sodipodi:nodetypes="czcscc"
         inkscape:connector-curvature="0"
         id="path1170"
         d="m 206.79651,197.38073 c 2.86469,4.17093 9.04903,8.8778 32.07176,6.91811 23.02273,-1.95969 29.26922,1.70386 32.52571,8.69623 -7.3676,-5.41852 -16.40337,-7.33096 -33.10617,-6.60141 l -16.70281,0.72955 c 0,0 -14.02962,-0.0616 -14.78849,-9.74248 z"
         style="fill:none;fill-opacity:0.98529412;stroke:#020000;stroke-width:0.01;stroke-linecap:butt;stroke-linejoin:miter;stroke-miterlimit:4;stroke-dasharray:none;stroke-opacity:1" />
    </clipPath>
    <clipPath
       clipPathUnits="userSpaceOnUse"
       id="clipPath1174">
      <path
         style="fill:none;fill-opacity:0.9901962;stroke:#000000;stroke-width:0.01;stroke-linecap:butt;stroke-linejoin:miter;stroke-miterlimit:4;stroke-dasharray:none;stroke-opacity:1"
         d="m 238.91711,202.48837 c 15.05098,-0.67438 20.44998,-2.15841 29.56277,3.76487 0.29997,-0.0378 -6.38417,-8.65174 -29.45182,-6.4257 -12.29778,1.18675 -21.27996,-0.40754 -33.58057,-5.85152 6.44776,10.39054 18.41864,9.18672 33.46962,8.51235 z"
         id="path1176"
         inkscape:connector-curvature="0"
         sodipodi:nodetypes="zcscz"
         inkscape:label="blänk-clip" />
    </clipPath>
    <filter
       inkscape:collect="always"
       style="color-interpolation-filters:sRGB"
       id="filter1990"
       x="-0.27208875"
       width="1.5441775"
       y="-0.28002533"
       height="1.5600507">
      <feGaussianBlur
         inkscape:collect="always"
         stdDeviation="1.8273699"
         id="feGaussianBlur1992" />
    </filter>
    <filter
       inkscape:collect="always"
       style="color-interpolation-filters:sRGB"
       id="filter2802"
       x="-0.027922967"
       width="1.0558459"
       y="-0.021043541"
       height="1.0420871">
      <feGaussianBlur
         inkscape:collect="always"
         stdDeviation="2.0661139"
         id="feGaussianBlur2804" />
    </filter>
  </defs>
  <sodipodi:namedview
     id="base"
     pagecolor="#ffffff"
     bordercolor="#666666"
     borderopacity="1.0"
     inkscape:pageopacity="0.0"
     inkscape:pageshadow="2"
     inkscape:zoom="0.35355339"
     inkscape:cx="710.55238"
     inkscape:cy="237.64973"
     inkscape:document-units="mm"
     inkscape:current-layer="layer3"
     showgrid="false"
     inkscape:snap-nodes="false"
     inkscape:snap-others="false"
     inkscape:window-width="1366"
     inkscape:window-height="713"
     inkscape:window-x="0"
     inkscape:window-y="0"
     inkscape:window-maximized="1"
     showguides="true"
     inkscape:snap-intersection-paths="false"
     inkscape:object-nodes="true"
     inkscape:snap-global="true"
     inkscape:snap-page="false"
     inkscape:measure-start="802.952,360.951"
     inkscape:measure-end="1002.01,360.898"
     scale-x="1"
     inkscape:object-paths="false"
     inkscape:snap-bbox="false" />
  <metadata
     id="metadata5">
    <rdf:RDF>
      <cc:Work
         rdf:about="">
        <dc:format>image/svg+xml</dc:format>
        <dc:type
           rdf:resource="http://purl.org/dc/dcmitype/StillImage" />
        <dc:title></dc:title>
      </cc:Work>
    </rdf:RDF>
  </metadata>
  <g
     inkscape:groupmode="layer"
     id="layer3"
     inkscape:label="Bakgrund"
     style="display:inline"
     transform="translate(0,123)">
    <rect
       style="display:inline;opacity:1;fill:#000000;fill-opacity:1;fill-rule:nonzero;stroke:none;stroke-width:0.59453678;stroke-miterlimit:4;stroke-dasharray:none;stroke-opacity:1"
       id="rect5229"
       width="297.31784"
       height="364.98328"
       x="-4.9072656e-07"
       y="-122.07863" />
  </g>
  <g
     inkscape:groupmode="layer"
     id="layer2"
     inkscape:label="Svärd"
     transform="translate(0,123)"
     style="display:inline">
    <path
       style="color:#000000;font-style:normal;font-variant:normal;font-weight:normal;font-stretch:normal;font-size:medium;line-height:normal;font-family:sans-serif;font-variant-ligatures:normal;font-variant-position:normal;font-variant-caps:normal;font-variant-numeric:normal;font-variant-alternates:normal;font-feature-settings:normal;text-indent:0;text-align:start;text-decoration:none;text-decoration-line:none;text-decoration-style:solid;text-decoration-color:#000000;letter-spacing:normal;word-spacing:normal;text-transform:none;writing-mode:lr-tb;direction:ltr;text-orientation:mixed;dominant-baseline:auto;baseline-shift:baseline;text-anchor:start;white-space:normal;shape-padding:0;clip-rule:nonzero;display:inline;overflow:visible;visibility:visible;opacity:1;isolation:auto;mix-blend-mode:normal;color-interpolation:sRGB;color-interpolation-filters:linearRGB;solid-color:#000000;solid-opacity:1;vector-effect:none;fill:#ffffff;fill-opacity:0.99014779;fill-rule:nonzero;stroke:#000101;stroke-width:0.2;stroke-linecap:butt;stroke-linejoin:miter;stroke-miterlimit:4;stroke-dasharray:none;stroke-dashoffset:0;stroke-opacity:0.99014779;filter:url(#filter2802);color-rendering:auto;image-rendering:auto;shape-rendering:auto;text-rendering:auto;enable-background:accumulate"
       d="M 251.1922,-97.229263 86.985251,135.47552 c -2.162741,2.09588 -10.553581,-4.81007 -13.377092,-7.76638 2.895753,4.98118 13.55692,13.03337 15.572089,10.52616 L 239.26368,-80.488968 Z"
       id="path1482"
       inkscape:connector-curvature="0"
       sodipodi:nodetypes="cccccc"
       inkscape:label="aura klinga" />
    <path
       sodipodi:type="star"
       style="opacity:0.45714285;fill:#ffffff;fill-opacity:1;fill-rule:nonzero;stroke:#03ffff;stroke-width:0.26499999;stroke-miterlimit:4;stroke-dasharray:none;stroke-dashoffset:9.99999905;stroke-opacity:0.99014779;filter:url(#filter1990)"
       id="path1984"
       sodipodi:sides="5"
       sodipodi:cx="257.98761"
       sodipodi:cy="-107.11781"
       sodipodi:r1="8.492856"
       sodipodi:r2="2.0027959"
       sodipodi:arg1="1.5042282"
       sodipodi:arg2="2.1353165"
       inkscape:flatsided="false"
       inkscape:rounded="0"
       inkscape:randomized="0"
       d="m 258.55255,-98.643767 -1.63646,-6.781993 -6.8132,1.46386 5.94436,-3.65211 -3.4976,-6.02739 5.31027,4.52487 4.65157,-5.18899 -2.66244,6.44863 6.37243,2.82041 -6.95575,-0.53939 z"
       inkscape:transform-center-x="-0.64511063"
       inkscape:transform-center-y="-1.2388352"
       transform="matrix(0.72934193,0,0,0.72934193,69.634279,-28.358491)"
       inkscape:label="aura spets" />
    <g
       id="g960"
       inkscape:label="vapen"
       inkscape:transform-center-y="137.20571"
       transform="rotate(34.482188,265.58904,-70.210141)"
       inkscape:transform-center-x="91.68259">
      <g
         inkscape:label="klinga"
         inkscape:transform-center-y="148.28569"
         inkscape:transform-center-x="-0.0068518187"
         transform="matrix(3.057665,0,0,1.4302618,190.31618,-162.40045)"
         id="g1119">
        <path
           style="display:inline;fill:#ffffff;fill-opacity:1;stroke:#ffffff;stroke-width:0.26458332px;stroke-linecap:butt;stroke-linejoin:miter;stroke-opacity:1"
           d="M 14.552083,255.46987 15.875,46.023807 V 255.42262 Z"
           id="path1113"
           inkscape:connector-curvature="0"
           sodipodi:nodetypes="ccc" />
        <path
           sodipodi:nodetypes="ccc"
           inkscape:connector-curvature="0"
           id="path1115"
           d="M 17.197048,255.46987 15.874131,46.023807 V 255.42262 Z"
           style="display:inline;fill:#cccccc;fill-opacity:1;stroke:none;stroke-width:0.26458332;stroke-linecap:butt;stroke-linejoin:miter;stroke-miterlimit:4;stroke-dasharray:none;stroke-dashoffset:2.64583325;stroke-opacity:1" />
      </g>
      <g
         inkscape:label="handtag"
         id="g948">
        <path
           style="display:none;opacity:1;fill:#ff0000;fill-opacity:0.31219512;fill-rule:evenodd;stroke:none;stroke-width:0.5;stroke-miterlimit:4;stroke-dasharray:none;stroke-dashoffset:9.99999905;stroke-opacity:1"
           d="m 212.44766,215.69363 c 0,-7.83988 11.76021,-14.19535 26.26715,-14.19535 14.50695,0 26.26716,6.35547 26.26716,14.19535 0,0 -3e-5,-3.76624 -26.26716,-3.76624 -26.26713,0 -26.26715,3.76624 -26.26715,3.76624 z"
           id="path944"
           inkscape:connector-curvature="0"
           sodipodi:nodetypes="csczc"
           inkscape:label="skål" />
        <g
           id="g1050"
           inkscape:label="fäste">
          <path
             inkscape:label="kloss"
             sodipodi:nodetypes="cccccc"
             style="fill:#cccccc;fill-opacity:1;stroke:none;stroke-width:0.26458332px;stroke-linecap:butt;stroke-linejoin:miter;stroke-opacity:1"
             d="m 233.5788,211.98441 c -0.67749,-0.52289 -0.47514,-5.21485 -0.71271,-7.82227 h 11.89259 c -0.23757,2.60742 -0.14095,7.29905 -0.71271,7.82227 l -5.23359,-0.057 z"
             id="path930"
             inkscape:connector-curvature="0" />
          <path
             style="fill:#ffffff;fill-opacity:1;stroke:none;stroke-width:0.26458332px;stroke-linecap:butt;stroke-linejoin:miter;stroke-opacity:1"
             d="m 235.27125,211.94821 c -1.02279,-1.1074 -0.0844,-1.72471 0.55805,-2.97091 1.21096,-2.34911 1.11851,-3.18411 2.71004,-4.45732 -0.50617,3.29909 0.48668,4.29415 0.29186,7.41543 z"
             id="path1052"
             inkscape:connector-curvature="0"
             sodipodi:nodetypes="csccc"
             inkscape:label="blänk" />
          <path
             sodipodi:nodetypes="csccccc"
             inkscape:connector-curvature="0"
             id="path1046"
             d="m 241.34898,212.02593 c 1.322,-0.70364 -0.0636,-2.03144 0.12547,-3.4257 0.23111,-1.70409 0.0854,-2.5559 -1.39843,-3.62639 l 4.36336,-0.44276 c -0.32565,1.36574 -0.62179,2.1165 -0.76153,3.98893 -0.15531,1.09477 0.46825,2.85578 -0.44633,3.48393 z"
             style="fill:#6d6d6d;fill-opacity:1;stroke:none;stroke-width:0.26458332px;stroke-linecap:butt;stroke-linejoin:miter;stroke-opacity:1"
             inkscape:label="skugga" />
          <path
             style="fill:#6d6d6d;fill-opacity:1;stroke:none;stroke-width:0.26458332px;stroke-linecap:butt;stroke-linejoin:miter;stroke-opacity:1"
             d="m 232.97008,205.11907 c -0.0125,1.23623 -0.005,2.48749 0.0835,3.87005 0.18368,-1.57422 0.86516,-1.90708 1.35831,-2.33467 0.71098,-0.61646 1.93794,-0.80536 3.51646,-1.54852 z"
             id="path1055"
             inkscape:connector-curvature="0"
             sodipodi:nodetypes="ccscc"
             inkscape:label="skugga över" />
        </g>
        <g
           id="g1058"
           inkscape:label="skydd">
          <path
             style="fill:#cccccc;fill-opacity:1;stroke:none;stroke-width:0.2913675px;stroke-linecap:butt;stroke-linejoin:miter;stroke-opacity:1"
             d="m 271.50766,212.87561 c -6.11078,-10.13384 -21.50794,-8.52227 -32.45265,-7.56524 -16.18562,1.41531 -31.8039,0.37922 -32.8316,-11.3674 6.11078,10.13384 21.50794,8.52227 32.45265,7.56524 16.18562,-1.41531 31.8039,-0.37922 32.8316,11.3674 z"
             id="path864"
             inkscape:connector-curvature="0"
             sodipodi:nodetypes="cscsc"
             inkscape:label="skydd" />
          <path
             style="fill:#6d6d6d;fill-opacity:1;fill-rule:nonzero;stroke:#6d6d6d;stroke-width:0.29100001;stroke-linecap:butt;stroke-linejoin:miter;stroke-miterlimit:4;stroke-dasharray:none;stroke-opacity:1"
             d="m 271.50766,212.87561 c -6.11078,-10.13384 -21.50794,-8.52227 -32.45265,-7.56524 -16.18562,1.41531 -31.8039,0.37922 -32.8316,-11.3674 6.11078,10.13384 21.50794,8.52227 32.45265,7.56524 16.18562,-1.41531 31.8039,-0.37922 32.8316,11.3674 z"
             id="path1067"
             inkscape:connector-curvature="0"
             sodipodi:nodetypes="cscsc"
             inkscape:label="skugga"
             mask="none"
             clip-path="url(#clipPath1167)" />
          <path
             inkscape:label="blänk"
             sodipodi:nodetypes="cscsc"
             inkscape:connector-curvature="0"
             id="path1172"
             d="m 271.50766,212.87561 c -6.11078,-10.13384 -21.50794,-8.52227 -32.45265,-7.56524 -16.18562,1.41531 -31.8039,0.37922 -32.8316,-11.3674 6.11078,10.13384 21.50794,8.52227 32.45265,7.56524 16.18562,-1.41531 31.8039,-0.37922 32.8316,11.3674 z"
             style="fill:#ffffff;fill-opacity:0.66176471;stroke:none;stroke-width:0.2913675px;stroke-linecap:butt;stroke-linejoin:miter;stroke-opacity:0.81862745"
             clip-path="url(#clipPath1174)" />
        </g>
        <g
           id="g2768"
           inkscape:label="grepp">
          <path
             inkscape:label="grepp"
             sodipodi:nodetypes="ccsssssssssccccc"
             inkscape:connector-curvature="0"
             id="path932"
             d="m 244.04597,211.9844 -0.1346,4.05009 c 0.0501,1.93168 -0.56922,3.09905 -0.53396,4.67589 0.0372,1.66447 0.62457,2.66692 0.62457,3.96536 0,1.29844 -0.47808,2.46299 -0.47808,3.97196 0,1.50897 1.03003,2.81308 1.03003,4.58608 0,1.77303 -0.48868,2.8058 -0.32223,4.73169 0.15723,1.81922 1.00433,2.58418 1.15937,4.35245 0.1912,2.18074 -0.10367,3.21263 0.35441,4.84585 0.5259,1.87519 1.35899,2.29001 1.77047,4.53445 0.33289,1.81577 -0.0226,2.77922 0.58352,4.53068 0.71253,2.05877 1.07167,1.79164 3.04074,10.31192 l -11.79141,2.75403 c -5.05,-20.64148 -6.01147,-45.09337 -5.77001,-57.31068 l 5.24094,-0.0716 z"
             style="fill:#53496a;fill-opacity:1;stroke:none;stroke-width:0.26458332px;stroke-linecap:butt;stroke-linejoin:miter;stroke-opacity:1" />
          <path
             sodipodi:nodetypes="cccscccc"
             inkscape:connector-curvature="0"
             id="path2749"
             d="m 238.82688,211.89266 c -4.76409,3.30339 1.65535,53.29132 4.00235,56.60798 -0.53745,0.13086 -1.4336,0.29796 -1.88337,0.40137 -0.29216,-0.38777 -0.83731,-1.81787 -1.03392,-2.84973 -4.91858,-25.81382 -4.78219,-43.88849 -4.76439,-47.14086 0.0186,-3.38235 -0.25609,-6.62051 0.13898,-6.94895 l 1.16245,-0.0882 z"
             style="display:inline;fill:#796995;fill-opacity:1;stroke:none;stroke-width:0.26499999;stroke-linecap:butt;stroke-linejoin:miter;stroke-miterlimit:4;stroke-dasharray:none;stroke-opacity:1"
             inkscape:label="blänk" />
          <path
             style="fill:#2e283c;fill-opacity:1;stroke:none;stroke-width:0.26458332px;stroke-linecap:butt;stroke-linejoin:miter;stroke-opacity:1"
             d="m 241.49476,211.9449 c 0.26763,0.73236 0.11847,1.83545 -0.21883,6.08583 -1.83154,23.0799 4.94684,43.25577 6.33065,45.17312 1.12927,1.56467 0.45159,2.81754 -0.29745,4.25139 l 2.65165,-0.64145 c 0.82599,-0.65391 -0.8758,-6.66612 -1.33718,-7.81816 -1.7307,-4.32141 -1.29239,-4.04491 -1.83023,-7.65823 -0.25256,-1.31585 -1.23173,-2.4527 -1.68187,-4.21345 -0.40728,-1.59313 -0.13104,-2.97359 -0.19576,-4.45703 -0.0649,-1.48793 -1.01383,-3.27886 -1.15868,-4.60334 -0.19283,-1.76327 0.36432,-3.79359 0.30195,-4.89062 -0.13146,-2.31221 -0.89376,-2.33868 -1.02427,-4.21107 -0.13257,-1.9019 0.41293,-2.885 0.38271,-4.21054 -0.0302,-1.32553 -0.66937,-2.85909 -0.68053,-4.25047 -0.008,-1.02763 0.52584,-2.70391 0.56731,-3.65406 0.052,-1.19079 0.32071,-4.84469 -0.0233,-4.87025 -0.36611,-0.0341 -1.78616,-0.0317 -1.78616,-0.0317 z"
             id="path2776"
             inkscape:connector-curvature="0"
             sodipodi:nodetypes="cssccscssssszssccc"
             inkscape:label="skugga" />
        </g>
        <g
           id="g2771"
           inkscape:label="kula">
          <path
             inkscape:label="kula"
             sodipodi:nodetypes="czcc"
             id="path934"
             inkscape:connector-curvature="0"
             d="m 239.3488,269.29485 c -0.0525,2.65167 2.9312,6.94574 7.30919,5.95934 4.37799,-0.98639 6.09273,-6.45384 4.48575,-8.7147 z"
             style="fill:#cccccc;fill-opacity:1;stroke:none;stroke-width:0.26458332px;stroke-linecap:butt;stroke-linejoin:miter;stroke-opacity:1" />
          <path
             style="fill:#ffffff;fill-opacity:1;stroke:none;stroke-width:0.26499999;stroke-linecap:butt;stroke-linejoin:miter;stroke-miterlimit:4;stroke-dasharray:none;stroke-opacity:1"
             d="m 240.9851,268.91431 c -0.97796,1.3687 0.94052,5.17263 4.50187,5.61384 -0.63906,-0.56922 -2.97554,-1.69971 -2.65491,-3.38899 0.26472,-0.67418 -1.49675,-1.60197 -0.061,-2.64478 z"
             id="path2773"
             inkscape:connector-curvature="0"
             sodipodi:nodetypes="ccccc"
             inkscape:label="blänk" />
          <path
             style="fill:#6d6d6d;fill-opacity:1;stroke:none;stroke-width:0.26458332px;stroke-linecap:butt;stroke-linejoin:miter;stroke-opacity:1"
             d="m 247.30945,267.43135 c 0.72848,0.27068 1.29448,1.16128 0.60259,2.49888 -0.60004,1.16001 1.66998,1.30886 -0.70628,4.16884 2.80933,-0.81581 4.60944,-5.6788 2.70683,-7.28481 z"
             id="path2778"
             inkscape:connector-curvature="0"
             sodipodi:nodetypes="csccc"
             inkscape:label="skugga" />
        </g>
        <path
           style="display:none;fill:none;fill-opacity:1;stroke:#fd0000;stroke-width:0.1;stroke-linecap:butt;stroke-linejoin:miter;stroke-miterlimit:4;stroke-dasharray:none;stroke-opacity:1"
           d="m 238.81974,201.49764 v 78.9309"
           id="path926"
           inkscape:connector-curvature="0"
           sodipodi:nodetypes="cc" />
      </g>
    </g>
  </g>
  <g
     inkscape:label="Mask"
     inkscape:groupmode="layer"
     id="layer1"
     transform="translate(0,123)"
     style="display:inline">
    <g
       id="g934"
       transform="matrix(1.26968,0,0,1.26968,21.342152,-92.804929)">
      <path
         style="display:inline;fill:#ffffff;fill-opacity:1;fill-rule:nonzero;stroke:none;stroke-width:0.24994776px;stroke-linecap:butt;stroke-linejoin:miter;stroke-opacity:1"
         d="m 37.871961,93.648808 c 0,0 -20.913643,68.623982 63.331649,48.213262 84.24567,20.41072 63.332,-48.213262 63.332,-48.213262 l -63.23697,-2.990399 z"
         id="path981"
         inkscape:connector-curvature="0"
         sodipodi:nodetypes="ccccc"
         inkscape:label="path981" />
      <rect
         style="opacity:0.77333332;fill:url(#linearGradient3486);fill-opacity:1;fill-rule:nonzero;stroke:none;stroke-width:0.33210704;stroke-miterlimit:4;stroke-dasharray:none;stroke-opacity:1"
         id="rect3484"
         width="21.519512"
         height="56.778126"
         x="152.66508"
         y="-140.57217"
         transform="scale(1,-1)"
         mask="url(#mask1167)" />
      <rect
         transform="matrix(-1.1586025,0,0,-0.98808234,-8.3540513,1.4038505)"
         y="-146.52725"
         x="-50.513939"
         height="57.462948"
         width="16.036171"
         id="rect7162"
         style="opacity:0.77333332;fill:url(#linearGradient844);fill-opacity:1;fill-rule:nonzero;stroke:none;stroke-width:0.28841355;stroke-miterlimit:4;stroke-dasharray:none;stroke-opacity:1"
         mask="url(#mask1163)" />
      <path
         sodipodi:nodetypes="ccccc"
         inkscape:connector-curvature="0"
         id="path3721"
         d="m 101.20359,141.86207 v -35.17141 c -10.218789,-6.08926 -24.86579,-2.49059 -8.77188,8.36726 -5.500292,13.43119 -8.134657,16.05425 -19.210984,30.03178 0,0 8.434187,2.12888 27.982864,-3.22763 z"
         style="display:inline;fill:url(#linearGradient5081);fill-opacity:1;fill-rule:nonzero;stroke:none;stroke-width:0.28600001;stroke-linecap:butt;stroke-linejoin:miter;stroke-miterlimit:4;stroke-dasharray:none;stroke-opacity:1;filter:url(#filter7139)"
         mask="url(#mask1159)" />
      <ellipse
         transform="matrix(1.1404407,0,0,1.2445357,-8.2877273,-24.26204)"
         id="ellipse3502"
         cx="68.527657"
         cy="107.96051"
         rx="19.164703"
         ry="8.1842546"
         style="fill:#4d4d4d;fill-opacity:1;stroke-width:0.30374989;filter:url(#filter3498)" />
      <ellipse
         style="fill:#000000;fill-opacity:1;stroke-width:0.33267167;filter:url(#filter7135)"
         ry="9.4679213"
         rx="19.871286"
         cy="112.09811"
         cx="70.657669"
         id="path3717" />
      <ellipse
         style="fill:#4d4d4d;fill-opacity:1;stroke-width:0.30374989;filter:url(#filter3498)"
         ry="8.1842546"
         rx="19.164703"
         cy="108.76232"
         cx="133.74142"
         id="ellipse3488" />
      <ellipse
         id="ellipse6695"
         cx="131.36401"
         cy="112.09811"
         rx="19.871286"
         ry="9.4679213"
         style="fill:#000000;fill-opacity:1;stroke-width:0.33267167;filter:url(#filter7156)" />
      <path
         transform="rotate(-156.2659,1.1139309,0.04219309)"
         d="m -108.03764,-70.448613 a 1.4146291,1.8708868 0 0 1 -1.40946,1.570342 1.4146291,1.8708868 0 0 1 -1.38707,-1.604825 1.4146291,1.8708868 0 0 1 0.98948,-2.056253 1.4146291,1.8708868 0 0 1 1.68667,0.982232 l -1.27589,0.80804 z"
         sodipodi:end="5.8365843"
         sodipodi:start="0.16129804"
         sodipodi:ry="1.8708868"
         sodipodi:rx="1.4146291"
         sodipodi:cy="-70.749077"
         sodipodi:cx="-109.43391"
         sodipodi:type="arc"
         id="path7143"
         style="opacity:0.23163841;fill:#ffffff;fill-opacity:1;fill-rule:nonzero;stroke:none;stroke-width:0.28600001;stroke-miterlimit:4;stroke-dasharray:none;stroke-opacity:1;filter:url(#filter7152)" />
      <path
         style="opacity:0.40677969;fill:#ffffff;fill-opacity:1;fill-rule:nonzero;stroke:none;stroke-width:0.28600001;stroke-miterlimit:4;stroke-dasharray:none;stroke-opacity:1;filter:url(#filter7152)"
         id="path7160"
         sodipodi:type="arc"
         sodipodi:cx="-109.43391"
         sodipodi:cy="-70.749077"
         sodipodi:rx="1.4146291"
         sodipodi:ry="1.8708868"
         sodipodi:start="0.16129804"
         sodipodi:end="5.8365843"
         d="m -108.03764,-70.448613 a 1.4146291,1.8708868 0 0 1 -1.40946,1.570342 1.4146291,1.8708868 0 0 1 -1.38707,-1.604825 1.4146291,1.8708868 0 0 1 0.98948,-2.056253 1.4146291,1.8708868 0 0 1 1.68667,0.982232 l -1.27589,0.80804 z"
         transform="rotate(-156.2659,31.596584,-6.0869468)" />
    </g>
  </g>
</svg>
